\BOOKMARK [-1][-]{part.1}{I Introduction}{}
\BOOKMARK [-1][-]{part.2}{II Getting started}{}
\BOOKMARK [0][-]{chapter.1}{A first example}{part.2}
\BOOKMARK [0][-]{chapter.2}{Further examples}{part.2}
\BOOKMARK [1][-]{section.2.1}{Reading}{chapter.2}
\BOOKMARK [1][-]{section.2.2}{Writing}{chapter.2}
\BOOKMARK [1][-]{section.2.3}{CF properties and attributes}{chapter.2}
\BOOKMARK [1][-]{section.2.4}{Selecting fields}{chapter.2}
\BOOKMARK [1][-]{section.2.5}{The data array}{chapter.2}
\BOOKMARK [1][-]{section.2.6}{Coordinates}{chapter.2}
\BOOKMARK [1][-]{section.2.7}{Creating fields}{chapter.2}
\BOOKMARK [-1][-]{part.3}{III Reference manual}{}
\BOOKMARK [0][-]{chapter.3}{Field structure}{part.3}
\BOOKMARK [1][-]{section.3.1}{CF properties and attributes}{chapter.3}
\BOOKMARK [1][-]{section.3.2}{Space structure}{chapter.3}
\BOOKMARK [1][-]{section.3.3}{Field list}{chapter.3}
\BOOKMARK [1][-]{section.3.4}{Field versus field list}{chapter.3}
\BOOKMARK [0][-]{chapter.4}{Units}{part.3}
\BOOKMARK [1][-]{section.4.1}{Assignment}{chapter.4}
\BOOKMARK [1][-]{section.4.2}{Time units}{chapter.4}
\BOOKMARK [1][-]{section.4.3}{Changing units}{chapter.4}
\BOOKMARK [1][-]{section.4.4}{Equality and equivalence of units}{chapter.4}
\BOOKMARK [1][-]{section.4.5}{Coordinate units}{chapter.4}
\BOOKMARK [0][-]{chapter.5}{Field manipulation}{part.3}
\BOOKMARK [1][-]{section.5.1}{Data array}{chapter.5}
\BOOKMARK [1][-]{section.5.2}{Copying}{chapter.5}
\BOOKMARK [1][-]{section.5.3}{Subspacing}{chapter.5}
\BOOKMARK [1][-]{section.5.4}{Selection}{chapter.5}
\BOOKMARK [1][-]{section.5.5}{Aggregation}{chapter.5}
\BOOKMARK [1][-]{section.5.6}{Assignment}{chapter.5}
\BOOKMARK [1][-]{section.5.7}{Arithmetic and comparison}{chapter.5}
\BOOKMARK [1][-]{section.5.8}{Manipulation routines}{chapter.5}
\BOOKMARK [1][-]{section.5.9}{Manipulating other variables}{chapter.5}
\BOOKMARK [0][-]{chapter.6}{Large Amounts of Massive Arrays \(LAMA\)}{part.3}
\BOOKMARK [1][-]{section.6.1}{Reading from files}{chapter.6}
\BOOKMARK [1][-]{section.6.2}{Copying}{chapter.6}
\BOOKMARK [1][-]{section.6.3}{Aggregation}{chapter.6}
\BOOKMARK [1][-]{section.6.4}{Subspacing}{chapter.6}
\BOOKMARK [1][-]{section.6.5}{Speed and memory management}{chapter.6}
\BOOKMARK [0][-]{chapter.7}{Functions}{part.3}
\BOOKMARK [1][-]{section.7.1}{Input and output}{chapter.7}
\BOOKMARK [1][-]{section.7.2}{Aggregation}{chapter.7}
\BOOKMARK [1][-]{section.7.3}{Mathematical operations}{chapter.7}
\BOOKMARK [1][-]{section.7.4}{Comparison}{chapter.7}
\BOOKMARK [1][-]{section.7.5}{Retrieval and setting of constants}{chapter.7}
\BOOKMARK [0][-]{chapter.8}{Classes}{part.3}
\BOOKMARK [1][-]{section.8.1}{Field class}{chapter.8}
\BOOKMARK [1][-]{section.8.2}{Field component classes}{chapter.8}
\BOOKMARK [1][-]{section.8.3}{Miscellaneous classes}{chapter.8}
\BOOKMARK [1][-]{section.8.4}{Data component classes}{chapter.8}
\BOOKMARK [1][-]{section.8.5}{Base classes}{chapter.8}
\BOOKMARK [1][-]{section.8.6}{Inheritance diagrams}{chapter.8}
\BOOKMARK [0][-]{chapter.9}{Constants}{part.3}
\BOOKMARK [1][-]{section.9.1}{cf.CONSTANTS}{chapter.9}
\BOOKMARK [-1][-]{part.4}{IV Indices and tables}{}
\BOOKMARK [0][-]{section*.654}{Index}{part.4}
